{
  "service_name" : "BVTRapidStak",
  "service_description": "This is a plate stacker service for the RapidSta of the TU Berlin (www.biotech.tu-berlin.de) ",
  "authors"      : "Sebastian Hans, Shaon Debnath, Mark Doerr",
  "creation_date" : "20191104",
  "version" : "0.1.1",
  "vendor_url" : "lara.uni-greifswald.de",
  "SiLA_standard_feature_list" : ["SiLAService"],
  "SiLA_feature_list" : ["CancelController", "PauseController"],
  "communication_port" : "50051",
  "IP_address" : "127.0.0.1",
  "hostname" : "localhost"
}
