{
  "service_name" : "ThermoVarioskanLUX",
  "service_description": "SiLA2 service for an Thermo Varioskan LUX plate reader.",
  "authors"      : "mark doerr, Mitko/madisoft",
  "creation_date" : "2019-11-10",
  "version" : "0.0.1",
  "vendor_url" : "lara.uni-greifswald.de",
  "SiLA_standard_feature_list" : ["SiLAService"],
  "SiLA_feature_list" : ["AbsorbanceReaderService", "FluorescenceReaderService"],
  "communication_port" : "50051",
  "IP_address" : "127.0.0.1",
  "hostname" : "localhost"
}
